22.003551 41.161349
21.808300 40.617036
21.625359 40.037989
21.419296 40.064489
21.225674 40.341966
21.011541 39.634231
20.807558 39.320337
20.589081 39.240705
20.374020 37.966037
20.150728 38.137287
19.927969 38.529795
19.702181 37.804754
19.472191 37.950060
19.244995 37.900878
19.009308 37.489635
18.784107 37.438322
18.541771 37.191139
18.315613 37.005649
18.072727 36.728510
17.843107 36.808378
17.604942 36.509369
17.374691 36.253943
17.141212 36.242752
16.908884 36.179248
16.675600 35.886975
16.444263 35.742024
16.217831 35.786750
15.986448 35.583709
15.764946 35.284661
15.534101 35.319138
15.317233 35.060395
15.089642 35.043670
14.878617 34.725133
14.655912 34.567483
14.447416 34.700563
14.231846 34.187278
14.025548 34.139072
13.816078 33.625561
13.613276 33.545496
13.409752 33.478160
13.211278 33.352321
13.016294 32.797141
12.819846 32.860688
12.629456 32.915102
12.439808 32.585536
12.255976 32.075019
12.071763 31.877652
11.891471 31.941878
11.713508 31.501139
11.540250 31.579672
11.368010 31.182869
11.197774 30.941873
11.031240 31.081152
10.866223 30.964821
10.705605 31.031972
10.545893 30.394249
10.391608 30.954655
10.236086 30.645655
10.085287 30.178786
9.934582 30.221794
9.790784 30.271438
9.646039 30.427498
9.505144 30.131791
9.365568 30.063397
9.228992 30.052486
9.095894 29.848843
8.964400 29.846422
8.834641 29.815460
8.708792 29.802670
8.582179 29.612479
8.460263 29.734516
8.339592 29.753970
8.221124 29.042540
8.104369 29.410033
7.991231 29.180383
7.876578 29.335555
7.766723 29.348367
7.657900 29.018752
7.553788 29.046421
7.446221 29.213656
7.345405 29.003708
7.242157 29.218105
7.145231 28.789734
7.046150 28.828444
6.950892 28.804176
6.855625 28.706797
6.765354 28.776813
6.672896 28.667718
6.584108 28.856373
6.496048 28.705716
6.410313 28.686070
6.325780 28.494308
6.242126 28.561369
6.160707 28.563111
6.080583 28.504613
6.001392 28.521859
5.923428 28.585185
5.847186 28.408213
5.772203 28.418109
5.698458 28.349976
5.627476 28.118604
5.555058 28.290973
5.485622 28.307975
5.416229 28.066055
5.349035 27.823772
5.281823 28.179589
5.217128 28.019052
5.152270 27.964390
5.089848 28.213692
5.026897 27.889641
4.967124 27.745074
4.905685 27.915675
4.847213 27.791755
4.788749 27.706092
4.732104 27.913463
4.674945 27.800159
4.620598 27.699824
4.565690 27.392774
4.512955 27.762750
4.459562 27.622247
4.408183 27.586698
4.356917 27.522933
4.306931 27.575451
4.257145 27.624683
4.208737 27.556232
4.160455 27.253244
4.114254 27.380417
4.067430 27.303414
4.022209 27.309583
3.976630 27.305588
3.932785 27.443090
