23.382088 55.427701
23.265318 55.720506
23.149708 58.167904
23.119699 55.257291
23.035240 55.151574
22.981813 53.726839
22.918533 55.991936
22.845562 54.706349
22.826349 53.505207
22.801336 53.835649
22.705135 56.195387
22.690281 55.999468
22.669682 52.326696
22.568056 55.473264
22.508654 53.102734
22.485952 53.089552
22.471382 54.018246
22.435846 55.644374
22.353899 54.039837
22.309162 52.591641
22.204418 54.097831
22.177597 53.853412
22.133562 52.889719
22.121798 51.033553
22.056921 52.510251
21.962250 53.484680
21.925995 52.067144
21.911373 53.934954
21.796614 52.138595
21.767731 52.275987
21.738926 51.710794
21.715483 50.651364
21.634205 51.905652
21.625961 53.235660
21.557255 50.483088
21.514906 52.227256
21.476416 53.637072
21.378595 53.005852
21.317272 50.025852
21.293278 51.097851
21.202873 52.172656
21.156883 51.395989
21.126810 50.858299
21.079725 50.442537
21.028599 52.804603
20.935509 50.927607
20.871113 49.769780
20.853683 49.819017
20.744192 52.001835
20.680283 53.077495
20.665905 50.292145
20.631754 49.104846
20.555666 51.119174
20.462009 50.957889
20.415167 49.782381
20.387831 50.004561
20.377184 51.028425
20.257496 51.811147
20.201773 50.193843
20.155462 49.410864
20.063477 50.889886
19.983194 49.455363
19.927059 49.698079
19.914347 49.037685
19.873138 50.862591
19.774303 49.522925
19.700045 50.768113
19.687618 50.281275
19.675829 49.209663
19.569122 50.477997
19.484222 48.886368
19.443562 48.999949
19.424807 48.305754
19.377172 51.100856
19.269508 49.804029
19.213167 49.519198
19.175985 49.099904
19.063549 49.551393
18.991634 48.964721
18.932882 48.246484
18.928289 48.499379
18.861948 50.098866
18.772892 49.199018
18.701468 49.112209
18.681320 48.066613
18.661774 50.448049
18.564100 49.557941
18.477829 48.510784
18.436356 48.614733
18.421665 47.923452
18.359362 48.885250
18.258944 48.788857
18.207817 47.876888
18.174950 47.982788
18.152224 48.743285
18.044661 48.708156
17.976587 47.976351
17.927544 47.774355
17.921368 47.848847
17.830763 48.668006
17.758734 48.315173
17.694805 47.957351
17.670761 47.865380
17.622375 49.744326
17.539194 48.353721
17.465097 47.650546
17.430962 47.986252
17.409086 47.748654
17.320690 48.994361
17.237947 47.733136
17.196634 47.355459
17.163065 47.766562
17.117884 48.431248
17.019876 48.784180
16.963451 47.837667
16.925735 47.395038
16.914270 47.469878
16.805443 47.324226
16.740099 47.606656
16.686403 47.095790
16.667690 47.473602
16.600761 48.131993
16.522114 47.923704
16.454611 47.677940
16.429060 47.245174
16.413940 46.863997
16.313143 47.640443
16.233389 47.722351
16.196747 46.923235
16.166546 47.163212
16.110638 48.286234
16.019682 47.859873
15.966826 46.967535
15.930562 47.552401
15.925685 46.405715
15.811930 46.970612
15.752480 47.507841
15.699789 46.170216
15.683617 46.792527
15.608326 47.917533
15.540329 47.302441
15.484435 46.875305
15.455682 46.507461
15.441154 46.622854
15.334193 47.189342
15.266317 46.843600
15.227589 46.788485
15.201262 46.426900
15.129786 47.384631
15.054260 46.415289
15.009738 46.753807
14.975531 46.254881
14.965837 46.256159
14.851192 47.084408
14.797331 46.746330
14.754663 46.349203
14.736898 45.884608
14.647341 46.715931
14.589828 46.484552
14.541569 46.091822
14.513508 45.938778
14.500360 46.450078
14.387733 46.334264
14.333884 46.254501
14.298427 45.980531
14.278151 46.249856
14.188904 46.273326
14.124056 46.214995
14.085494 46.091913
14.060114 45.927223
14.048723 45.895260
13.926492 46.243261
13.881588 46.120551
13.847715 46.253770
13.829616 45.829131
13.733473 46.491978
13.685901 46.331808
13.637168 45.803050
13.615752 45.869371
13.608332 46.400957
13.486033 46.634891
13.440737 46.582702
13.407250 45.603663
13.392869 45.859574
13.301549 45.821803
13.241733 46.024351
13.208671 45.915135
13.185236 45.665362
13.178555 45.702145
13.055358 45.956955
13.012090 45.494516
12.982593 45.650610
12.966144 45.447436
12.872033 45.717176
12.822328 45.700980
12.784251 45.624166
12.763863 45.494293
12.764646 45.936905
12.639044 45.283173
12.597216 45.448629
12.567796 45.544808
12.554148 45.206995
12.460677 45.784321
12.413598 46.120122
12.377908 45.072773
12.355858 44.882359
12.350235 44.989462
12.232140 45.261867
12.197483 45.679317
12.167527 44.806189
12.153078 45.122445
12.059869 45.374851
12.017614 45.561051
11.986233 45.477666
11.963721 44.455430
11.964180 45.461464
11.840952 46.054344
11.808475 45.138326
11.780174 45.252727
11.766851 44.375295
11.673554 45.913009
11.631358 45.326668
11.605842 44.897348
11.589896 45.282822
11.583445 44.959979
11.460528 45.263834
11.426963 44.601369
11.410046 45.256800
11.398378 45.387025
11.300983 45.250078
11.265700 45.315302
11.231244 45.152895
11.212886 44.656841
11.093923 45.085042
11.067369 45.057373
11.041531 44.521991
10.935726 45.164265
10.900781 44.979938
10.878744 45.581996
10.742828 45.399878
10.709286 44.353372
10.598197 45.905217
10.551978 44.528870
10.398704 43.975783
10.252007 44.547838
