23.382088 24.570595
23.265318 25.485575
23.149708 25.530722
23.119699 25.774267
23.035240 25.904531
22.981813 25.656099
22.918533 26.298372
22.845562 26.210186
22.826349 26.103088
22.801336 26.410412
22.705135 26.677767
22.690281 26.618090
22.669682 26.769468
22.568056 26.902119
22.508654 26.655037
22.485952 26.385939
22.471382 26.905762
22.435846 26.676647
22.353899 27.113573
22.309162 27.172016
22.204418 27.328144
22.177597 27.635292
22.133562 27.223938
22.121798 27.406849
22.056921 27.601498
21.962250 27.415737
21.925995 27.504208
21.911373 27.881327
21.796614 27.689592
21.767731 27.873270
21.738926 27.767403
21.715483 27.583784
21.634205 28.133375
21.625961 28.198187
21.557255 28.128937
21.514906 27.731176
21.476416 28.085260
21.378595 28.532780
21.317272 28.294279
21.293278 28.025970
21.202873 28.364105
21.156883 28.584579
21.126810 28.626678
21.079725 28.407639
21.028599 28.949072
20.935509 28.467546
20.871113 28.696096
20.853683 28.689280
20.744192 28.734655
20.680283 29.081133
20.665905 28.602468
20.631754 28.867615
20.555666 28.880869
20.462009 28.823347
20.415167 28.942848
20.387831 29.099388
20.377184 29.117214
20.257496 28.991095
20.201773 29.193453
20.155462 29.174234
20.063477 29.182632
19.983194 29.251453
19.927059 29.377501
19.914347 29.421089
19.873138 29.408617
19.774303 29.410954
19.700045 29.560806
19.687618 29.742695
19.675829 29.300871
19.569122 29.772087
19.484222 29.585936
19.443562 29.626186
19.424807 29.902819
19.377172 29.876932
19.269508 29.782713
19.213167 29.753027
19.175985 29.665642
19.063549 30.075884
18.991634 29.936127
18.932882 29.657820
18.928289 29.943108
18.861948 30.222141
18.772892 30.125500
18.701468 29.795734
18.681320 29.958977
18.661774 30.119770
18.564100 30.162527
18.477829 30.299698
18.436356 30.015192
18.421665 30.275805
18.359362 30.283321
18.258944 30.224186
18.207817 30.310089
18.174950 30.307819
18.152224 30.419758
18.044661 30.406197
17.976587 30.407072
17.927544 30.447350
17.921368 30.457684
17.830763 30.393391
17.758734 30.352880
17.694805 30.509584
17.670761 30.692909
17.622375 30.594435
17.539194 30.752722
17.465097 30.682487
17.430962 30.733835
17.409086 30.906368
17.320690 30.781874
17.237947 30.638042
17.196634 30.737095
17.163065 30.845367
17.117884 30.870453
17.019876 30.849344
16.963451 30.904499
16.925735 30.922070
16.914270 30.823631
16.805443 31.036324
16.740099 31.090693
16.686403 31.003971
16.667690 30.768583
16.600761 31.079910
16.522114 31.188643
16.454611 31.136574
16.429060 30.987555
16.413940 30.954559
16.313143 31.363672
16.233389 31.317776
16.196747 31.238552
16.166546 31.110008
16.110638 31.405914
16.019682 31.506178
15.966826 31.260757
15.930562 31.341692
15.925685 31.420498
15.811930 31.538622
15.752480 31.506268
15.699789 31.558287
15.683617 31.493185
15.608326 31.486477
15.540329 31.673635
15.484435 31.647989
15.455682 31.445028
15.441154 31.487392
15.334193 31.566141
15.266317 31.461796
15.227589 31.706375
15.201262 31.786127
15.129786 31.297602
15.054260 31.603075
15.009738 31.762568
14.975531 31.767149
14.965837 31.743437
14.851192 31.628679
14.797331 31.860943
14.754663 31.836960
14.736898 31.985233
14.647341 31.936741
14.589828 31.841824
14.541569 32.159473
14.513508 32.082512
14.500360 31.730827
14.387733 32.065033
14.333884 32.076969
14.298427 32.126282
14.278151 32.062115
14.188904 32.185940
14.124056 32.251362
14.085494 32.105888
14.060114 32.206253
14.048723 31.978449
13.926492 32.168022
13.881588 32.206642
13.847715 32.081436
13.829616 32.168907
13.733473 32.184467
13.685901 32.236771
13.637168 32.468815
13.615752 32.348339
13.608332 32.283375
13.486033 32.493336
13.440737 32.416889
13.407250 32.479397
13.392869 32.262783
13.301549 32.563053
13.241733 32.426502
13.208671 32.586082
13.185236 32.472122
13.178555 32.572956
13.055358 32.615051
13.012090 32.469620
12.982593 32.679680
12.966144 32.897011
12.872033 32.603748
12.822328 32.592533
12.784251 32.650192
12.763863 32.832275
12.764646 32.699287
12.639044 32.602722
12.597216 32.724384
12.567796 32.647362
12.554148 32.713940
12.460677 32.505383
12.413598 32.695995
12.377908 32.818111
12.355858 32.710018
12.350235 32.996178
12.232140 32.676624
12.197483 32.915535
12.167527 32.769463
12.153078 32.942333
12.059869 32.979637
12.017614 32.839691
11.986233 32.783054
11.963721 33.056335
11.964180 33.117386
11.840952 32.906158
11.808475 33.085503
11.780174 33.008457
11.766851 33.031799
11.673554 33.044331
11.631358 32.840767
11.605842 33.214748
11.589896 33.193378
11.583445 33.234852
11.460528 33.153561
11.426963 33.133812
11.410046 33.155907
11.398378 33.231194
11.300983 33.180973
11.265700 33.169308
11.231244 33.230232
11.212886 33.121746
11.093923 33.305489
11.067369 33.249638
11.041531 33.181568
10.935726 33.324245
10.900781 33.376076
10.878744 33.340118
10.742828 33.373962
10.709286 33.279236
10.598197 33.499107
10.551978 33.462078
10.398704 33.484615
10.252007 33.547081
