100 24.022307
120 24.849470
140 25.295961
144 25.148112
160 25.593383
168 25.281460
180 25.867372
192 25.891884
196 25.558367
200 25.980562
216 26.089773
220 26.120462
224 26.114601
240 26.277266
252 26.304088
256 25.983669
260 26.513908
264 26.477115
280 26.805699
288 26.318883
308 26.820331
312 27.005806
320 26.831749
324 26.651331
336 27.233418
352 26.901248
360 27.021508
364 27.586647
384 27.291508
392 27.520638
396 27.191484
400 27.070322
416 27.643964
420 27.639971
432 27.753646
440 27.120807
448 27.629286
468 28.058758
480 27.672815
484 27.265266
504 27.944545
512 28.095700
520 28.061899
528 27.798823
540 28.265642
560 28.131907
572 28.132506
576 28.027923
600 28.306359
612 28.426176
616 28.240750
624 28.419770
640 28.420249
660 28.393731
672 28.472570
676 28.338492
680 28.639124
704 28.634853
720 28.640936
728 28.567773
748 28.701807
768 28.782627
780 28.696717
784 28.523882
792 28.970166
816 28.987122
832 29.023702
836 29.235406
840 28.712381
864 29.243912
884 29.068983
896 29.113689
900 28.828520
912 29.435712
936 29.354805
952 29.093362
960 29.051279
988 29.557374
1008 29.472578
1020 29.186555
1024 29.293208
1040 29.546458
1064 29.515583
1080 29.497870
1088 29.409933
1092 29.626954
1120 29.759714
1140 29.740057
1152 29.678375
1156 29.431347
1176 29.785604
1200 29.749809
1216 29.919244
1224 29.758691
1232 29.987311
1260 29.858628
1280 30.070193
1292 29.988850
1296 29.740827
1320 30.067137
1344 30.042060
1360 30.078974
1368 30.109783
1380 30.291311
1408 30.186862
1428 30.118976
1440 30.125555
1444 30.255984
1472 30.516095
1496 30.287886
1512 30.157866
1520 30.252256
1536 30.625040
1564 30.658923
1584 30.353631
1596 30.346603
1600 30.233197
1632 30.700548
1656 30.630201
1672 30.526579
1680 30.260633
1700 30.647161
1728 30.699703
1748 30.719565
1760 30.470160
1764 30.435410
1800 30.764675
1824 30.830462
1840 30.727223
1848 30.647525
1872 30.938967
1900 31.038747
1920 30.848262
1932 30.986971
1936 30.855119
1976 31.102823
2000 30.779439
2016 31.064865
2024 31.081622
2052 31.108515
2080 30.982244
2100 30.997824
2112 31.159839
2116 31.132640
2160 31.054391
2184 31.296564
2200 31.176220
2208 31.368719
2240 31.111299
2268 31.399749
2288 31.288063
2300 31.244860
2304 31.372322
2352 31.441054
2376 31.597604
2392 31.463117
2400 31.356487
2436 31.450319
2464 31.573695
2484 31.576361
2496 31.467274
2500 31.364044
2552 31.707623
2576 31.683542
2592 31.499269
2600 31.601629
2640 31.755641
2668 31.751207
2688 31.774952
2700 31.637917
2704 31.595793
2760 31.773932
2784 32.004228
2800 31.780683
2808 31.808852
2852 32.108230
2880 31.996550
2900 32.083872
2912 31.920520
2916 31.724386
2976 32.285275
3000 32.079786
3016 31.915848
3024 31.758996
3072 32.116956
3100 32.194636
3120 32.047772
3132 31.993510
3136 32.011533
3200 32.343014
3224 32.351472
3240 31.989720
3248 32.231879
3300 32.353920
3328 32.223487
3348 32.439537
3360 32.392064
3364 32.109639
3432 32.560228
3456 32.488955
3472 32.386183
3480 32.178522
3536 32.427480
3564 32.540145
3584 32.491182
3596 32.314083
3600 32.437008
3672 32.531007
3696 32.500046
3712 32.381062
3720 32.568990
3780 32.779737
3808 32.642512
3828 32.667329
3840 32.573381
3844 32.579280
3920 32.744432
3944 32.647226
3960 32.804883
3968 32.759577
4032 32.803598
4060 32.652133
4080 32.721260
4092 32.995044
4096 32.696923
4176 32.756491
4200 33.024746
4216 33.045122
4224 32.745178
4292 32.771743
4320 32.938739
4340 33.055406
4352 32.769616
4440 32.953610
4464 33.173394
4480 32.983456
4560 33.133350
4588 33.181149
4608 32.959782
4712 33.274958
4736 33.060957
4836 33.351069
4864 33.170213
4992 33.219717
5120 33.370357
