100 24.023863
120 24.854009
140 25.299658
144 25.155158
160 25.593762
168 25.287429
180 25.867590
192 25.894655
196 25.562368
200 25.983086
216 26.090190
220 26.121784
224 26.121789
240 26.276501
252 26.305330
256 25.985897
260 26.521090
264 26.477054
280 26.811049
288 26.323410
308 26.821051
312 27.014835
320 26.839647
324 26.657527
336 27.239125
352 26.908526
360 27.023607
364 27.592807
384 27.295973
392 27.529476
396 27.193026
400 27.070017
416 27.644658
420 27.647927
432 27.757324
440 27.123664
448 27.634598
468 28.063724
480 27.677187
484 27.269147
504 27.945505
512 28.099046
520 28.070111
528 27.818468
540 28.267422
560 28.129990
572 28.139781
576 27.984222
600 28.305016
612 28.434791
616 28.237029
624 28.426206
640 28.421628
660 28.396988
672 28.482081
676 28.343022
680 28.638796
704 28.631328
720 28.650699
728 28.579734
748 28.707746
768 28.789225
780 28.701167
784 28.532061
792 28.984450
816 28.984819
832 29.033108
836 29.232938
840 28.714950
864 29.240075
884 29.073862
896 29.125090
900 28.841759
912 29.448236
936 29.347024
952 29.086107
960 29.063332
988 29.565758
1008 29.464073
1020 29.173867
1024 29.304485
1040 29.543269
1064 29.515274
1080 29.504946
1088 29.422366
1092 29.636736
1120 29.762348
1140 29.724739
1152 29.680382
1156 29.429517
1176 29.801161
1200 29.756180
1216 29.935242
1224 29.768818
1232 29.987251
1260 29.862801
1280 30.072980
1292 29.985984
1296 29.754757
1320 30.060062
1344 30.060567
1360 30.072580
1368 30.101829
1380 30.284394
1408 30.203484
1428 30.144645
1440 30.105354
1444 30.214010
1472 30.532603
1496 30.286674
1512 30.179417
1520 30.248705
1536 30.634581
1564 30.652755
1584 30.354855
1596 30.349039
1600 30.165158
1632 30.721085
1656 30.621258
1672 30.546722
1680 30.275408
1700 30.648033
1728 30.700234
1748 30.715126
1760 30.472625
1764 30.428814
1800 30.757411
1824 30.849705
1840 30.721139
1848 30.662583
1872 30.912180
1900 31.048088
1920 30.860477
1932 30.972431
1936 30.873369
1976 31.073923
2000 30.770563
2016 31.086623
2024 31.063849
2052 31.105429
2080 30.957247
2100 31.004396
2112 31.141209
2116 31.104287
2160 31.036601
2184 31.267250
2200 31.169092
2208 31.367414
2240 31.077332
2268 31.374306
2288 31.280687
2300 31.217034
2304 31.378601
2352 31.434976
2376 31.568256
2392 31.452039
2400 31.352057
2436 31.441171
2464 31.561700
2484 31.557831
2496 31.443258
2500 31.386468
2552 31.688848
2576 31.673912
2592 31.457038
2600 31.593214
2640 31.708979
2668 31.764625
2688 31.763299
2700 31.635084
2704 31.586210
2760 31.776551
2784 31.998784
2800 31.813441
2808 31.810982
2852 32.068074
2880 31.982746
2900 32.076162
2912 31.886781
2916 31.696139
2976 32.223427
3000 32.075266
3016 31.905370
3024 31.753736
3072 32.077782
3100 32.143397
3120 32.067635
3132 31.947170
3136 31.948248
3200 32.273106
3224 32.307678
3240 31.960049
3248 32.168560
3300 32.275164
3328 32.180085
3348 32.336263
3360 32.343614
3364 32.048178
3432 32.540249
3456 32.388275
3472 32.317059
3480 32.194482
3536 32.379115
3564 32.422668
3584 32.427717
3596 32.250267
3600 32.372418
3672 32.441314
3696 32.484209
3712 32.341074
3720 32.532910
3780 32.653161
3808 32.517537
3828 32.566536
3840 32.553301
3844 32.512973
3920 32.644892
3944 32.503714
3960 32.699319
3968 32.764855
4032 32.721164
4060 32.582502
4080 32.634979
4092 32.988632
4096 32.578819
4176 32.641594
4200 32.869715
4216 32.925922
4224 32.701477
4292 32.651685
4320 32.855742
4340 33.007457
4352 32.656497
4440 32.850372
4464 33.080558
4480 32.883769
4560 33.006160
4588 33.052279
4608 32.915190
4712 33.147047
4736 32.961209
4836 33.115758
4864 33.077261
4992 33.075546
5120 33.245177
