23.974119 10.589650
23.964622 11.279933
23.953672 11.534476
23.944193 11.753244
23.933262 11.965404
23.923069 12.962363
23.912886 13.668799
23.893997 13.941460
23.872238 14.126567
23.853413 14.257638
23.831728 14.555643
23.811523 14.888007
23.782001 15.025473
23.751118 15.412535
23.721745 15.778459
23.691017 15.934725
23.671051 16.267935
23.662504 16.005686
23.634060 16.333809
23.591522 16.327843
23.554781 16.409737
23.512527 16.952417
23.492861 17.207005
23.475328 16.811020
23.446634 17.293531
23.395020 17.372858
23.349178 17.658298
23.297991 18.150990
23.278683 18.099417
23.252527 18.130566
23.224375 18.281534
23.163496 18.215624
23.105650 17.595715
23.049442 17.738287
23.030544 18.009460
22.992165 17.850273
22.968662 19.114952
22.899109 18.368666
22.833290 18.493067
22.769167 18.510904
22.750723 18.630566
22.704746 18.554228
22.681173 19.572018
22.604248 19.722712
22.536236 19.716709
22.459646 20.166786
22.441702 20.193804
22.391863 20.045769
22.365753 20.278910
22.281477 20.422619
22.207235 20.511587
22.123524 20.691643
22.106112 20.896856
22.049091 20.467672
22.025009 20.888241
21.933483 21.292580
21.851213 21.200329
21.763533 21.088528
21.746681 21.394928
21.685518 21.543047
21.659836 21.658331
21.563034 21.345732
21.478821 22.134460
21.382463 22.054716
21.366198 21.866560
21.299074 22.178217
21.274300 22.018829
21.172922 22.190918
21.084370 22.641968
20.983110 22.563967
20.967447 22.884989
20.893915 22.022972
20.872290 22.856396
20.765923 23.015486
20.671494 23.186323
20.568233 23.164127
20.553183 23.339422
20.475060 23.400642
20.454290 23.335957
20.344759 22.949133
20.247856 23.560541
20.140520 23.799936
20.126087 23.714483
20.046570 23.487650
20.023602 23.824821
19.912067 23.661057
19.813242 23.858809
19.702551 24.218441
19.688740 23.945807
19.605789 24.171661
19.583818 24.319204
19.470366 24.470539
19.369184 24.384712
19.256783 24.374790
19.243589 24.645464
19.156404 24.306156
19.137291 24.172319
19.022034 24.745756
18.917709 24.498655
18.805523 24.509727
18.792942 24.775917
18.702219 24.517796
18.685778 24.723305
18.569300 24.797779
18.464231 24.703960
18.350920 24.565962
18.338938 25.002359
18.248724 25.098904
18.233492 25.020428
18.114220 24.872255
18.008038 24.977030
17.894943 24.881573
17.883551 25.030949
17.794529 25.302900
17.777233 25.225578
17.658680 25.380079
17.553837 25.353668
17.439396 25.352875
17.428576 25.072374
17.338280 25.447725
17.324530 25.306906
17.204388 25.331533
17.101879 25.566423
16.985897 25.576086
16.975630 25.521446
16.885967 25.601414
16.869667 25.468157
16.752876 25.508327
16.650019 25.671160
16.535891 25.324732
16.526161 25.492550
16.436361 25.844847
16.420231 25.522005
16.305502 25.652075
16.201372 25.452173
16.090658 25.816109
16.082104 25.608028
15.990545 25.681841
15.980148 25.817329
15.864102 25.899654
15.763304 25.847401
15.651621 25.949562
15.642592 25.800856
15.552574 25.699120
15.542124 26.052740
15.428698 26.130655
15.328558 25.557423
15.219100 25.695091
15.211447 25.995821
15.122527 25.869673
15.109452 25.888401
15.000229 26.130856
14.900474 26.015907
14.793962 25.666977
14.786730 25.790277
14.696098 25.833977
14.687041 26.086382
14.579223 25.694201
14.482837 26.136381
14.377985 26.088026
14.371678 26.129936
14.284492 26.204277
14.274899 26.321508
14.168429 26.188295
14.072847 26.100035
13.972090 26.095423
13.963407 25.590115
13.882560 26.382629
13.864938 25.763655
13.766161 26.289627
13.675199 26.385921
13.573004 26.420912
13.566682 26.255596
13.482950 26.410252
13.472556 26.403465
13.371992 26.454845
13.279643 26.378036
13.183917 26.492191
13.177510 26.623652
13.095664 26.514517
13.085423 26.577053
12.989034 26.756872
12.900398 26.705742
12.806498 27.015451
12.800244 26.617788
12.719916 26.804195
12.714159 26.798279
12.616257 26.784775
12.529825 26.873613
12.438468 26.974922
12.436697 27.431519
12.356194 27.063513
12.348433 27.188890
12.254725 27.351702
12.171087 27.198599
12.081713 27.368353
12.076703 27.346172
12.000595 27.416101
11.992178 27.393471
11.905041 27.544422
11.820760 27.450081
11.733637 27.579929
11.729611 27.649845
11.657111 27.722143
11.648479 27.449228
11.560977 27.646959
11.477627 27.574055
11.396956 27.672817
11.392004 27.730885
11.319204 27.738567
11.312529 28.022429
11.228540 27.857191
11.151322 27.581833
11.069390 27.859524
11.064407 27.647093
10.993569 27.878847
10.987886 27.810305
10.906061 27.898340
10.827980 27.778248
10.749538 27.856262
10.748951 27.883204
10.676283 27.628639
10.674253 28.048014
10.592592 27.751410
10.518779 27.841473
10.445570 28.139318
10.441410 28.008711
10.374606 28.172832
10.368314 28.009487
10.293405 27.997002
10.221430 28.286100
10.148096 28.266182
10.142338 28.054947
10.080586 28.367907
10.073356 28.322231
9.999454 28.426035
9.930764 28.446981
9.858932 28.559374
9.856091 28.355778
9.788862 28.299597
9.787644 28.444237
9.714259 28.578955
9.649183 28.529621
9.586374 28.830074
9.577152 28.653646
9.515851 28.764936
9.510442 28.755911
9.443861 28.765759
9.377759 28.542337
9.311804 28.524595
9.309599 28.781773
9.247857 28.636818
9.244052 28.880978
9.179208 28.991831
9.115689 29.110447
9.052524 28.920742
9.051064 28.796301
8.989610 28.877218
8.986425 29.115692
8.924221 29.248697
8.861275 28.838120
8.801180 29.025667
8.800687 29.448410
8.741991 29.099009
8.735582 29.211493
8.676312 29.331724
8.615859 29.010860
8.555497 29.170368
8.553079 29.347155
8.498179 29.363037
8.494324 29.322968
8.436824 29.326157
8.377419 29.324266
8.320078 29.242367
8.318053 29.244576
8.264036 29.441017
8.260737 29.491640
8.203179 29.235226
8.145742 29.244263
8.093017 29.521959
8.093101 29.190695
8.039079 29.355707
8.035875 29.583649
7.981154 29.448183
7.927014 29.517359
7.873525 29.351042
7.871791 29.344152
7.821063 29.595438
7.819741 29.550131
7.765844 29.451891
7.710567 29.270857
7.662263 29.451296
7.659278 29.609446
7.610507 29.501434
7.605576 29.280289
7.556613 29.576656
7.505554 29.504261
7.456523 29.344131
7.454191 29.569572
7.409386 29.375805
7.403944 29.353621
7.355678 29.054131
7.306067 29.186958
7.258863 29.075836
7.255983 29.101496
7.211669 29.020555
7.208035 29.263556
7.159542 29.212902
7.110347 29.095400
7.065376 29.128292
7.064297 29.309856
7.020720 29.122486
7.017713 29.077715
6.971862 29.111374
6.926607 29.314590
6.880130 29.256231
6.878264 29.047569
6.837005 29.131683
6.832431 29.047110
6.792716 29.172495
6.743845 29.047991
6.701264 29.045670
6.700066 29.303612
6.661982 29.301914
6.655612 29.051931
6.613356 28.999523
6.569766 29.220730
6.529782 29.189129
6.527723 29.002623
6.488623 29.305492
6.484128 29.111580
6.443276 29.102282
6.401529 29.324776
6.361141 29.225922
6.361399 28.985586
6.324463 29.215910
6.318975 29.014137
6.278667 29.025946
6.240008 29.332312
6.202068 29.326580
6.198842 29.098742
6.161060 29.195322
6.159034 28.982105
6.121687 29.292280
6.084085 29.472969
6.047592 29.567047
6.044570 29.270243
6.008595 29.311903
6.005842 29.422756
5.968648 29.217382
5.929408 29.339495
5.893373 29.083403
5.893461 29.302135
5.860392 29.262070
5.854764 29.200333
5.818895 29.321894
5.782273 29.331305
5.748209 29.428368
5.748167 29.553551
5.713299 29.283926
5.709856 29.242931
5.675736 29.606007
5.640160 29.226992
5.609065 29.547056
5.605347 29.455969
5.571434 29.097078
5.570132 29.343784
5.536683 29.470543
5.504287 29.598791
5.471735 29.311405
5.470403 29.339993
5.441071 29.486732
5.435431 29.458664
5.403574 29.498028
5.369852 29.183138
5.338866 29.578289
5.338468 29.281288
5.307662 29.531330
5.306338 29.346823
5.274345 29.486507
5.244064 29.653404
5.212159 29.279686
5.210570 29.421335
5.182176 29.487354
5.180742 29.584303
5.147477 29.375984
5.114504 29.141142
5.086552 29.426693
5.057537 29.770699
