4 10.589650
6 11.279933
8 11.534476
10 11.753244
12 11.965404
14 12.962363
16 13.668799
20 13.941460
24 14.126567
28 14.257638
32 14.555643
36 14.888007
42 15.025473
48 15.412535
54 15.778459
60 15.934725
64 16.267935
66 16.005686
72 16.333809
80 16.327842
88 16.409737
96 16.952417
100 17.207004
104 16.811020
110 17.293532
120 17.372859
130 17.658299
140 18.150989
144 18.099416
150 18.130565
156 18.281535
168 18.215624
180 17.595715
192 17.738287
196 18.009461
204 17.850273
210 19.114953
224 18.368665
238 18.493066
252 18.510904
256 18.630565
266 18.554228
272 19.572017
288 19.722711
304 19.716710
320 20.166787
324 20.193803
336 20.045769
342 20.278910
360 20.422619
378 20.511588
396 20.691642
400 20.896856
414 20.467673
420 20.888240
440 21.292580
460 21.200329
480 21.088527
484 21.394928
500 21.543047
506 21.658330
528 21.345731
550 22.134461
572 22.054716
576 21.866560
594 22.178216
600 22.018830
624 22.190918
648 22.641968
672 22.563967
676 22.884988
696 22.022973
702 22.856396
728 23.015486
754 23.186324
780 23.164127
784 23.339422
806 23.400643
812 23.335956
840 22.949133
868 23.560541
896 23.799937
900 23.714484
924 23.487649
930 23.824821
960 23.661057
990 23.858809
1020 24.218441
1024 23.945807
1050 24.171662
1056 24.319205
1088 24.470540
1120 24.384713
1152 24.374791
1156 24.645463
1184 24.306157
1190 24.172319
1224 24.745756
1258 24.498655
1292 24.509728
1296 24.775918
1326 24.517795
1332 24.723305
1368 24.797780
1404 24.703961
1440 24.565962
1444 25.002360
1476 25.098903
1482 25.020428
1520 24.872255
1558 24.977029
1596 24.881573
1600 25.030948
1634 25.302900
1640 25.225578
1680 25.380080
1720 25.353669
1760 25.352874
1764 25.072375
1800 25.447726
1806 25.306905
1848 25.331534
1890 25.566423
1932 25.576086
1936 25.521446
1974 25.601413
1980 25.468156
2024 25.508327
2068 25.671160
2112 25.324731
2116 25.492550
2156 25.844847
2162 25.522006
2208 25.652075
2254 25.452173
2300 25.816109
2304 25.608029
2346 25.681841
2352 25.817329
2400 25.899654
2448 25.847400
2496 25.949562
2500 25.800855
2544 25.699120
2550 26.052741
2600 26.130656
2650 25.557423
2700 25.695091
2704 25.995821
2750 25.869672
2756 25.888401
2808 26.130855
2860 26.015907
2912 25.666976
2916 25.790278
2964 25.833977
2970 26.086381
3024 25.694201
3078 26.136381
3132 26.088026
3136 26.129936
3186 26.204277
3192 26.321508
3248 26.188295
3304 26.100034
3360 26.095422
3364 25.590114
3416 26.382630
3422 25.763655
3480 26.289628
3538 26.385921
3596 26.420912
3600 26.255597
3654 26.410252
3660 26.403466
3720 26.454846
3780 26.378036
3840 26.492191
3844 26.623651
3900 26.514517
3906 26.577053
3968 26.756873
4030 26.705742
4092 27.015452
4096 26.617789
4154 26.804196
4160 26.798278
4224 26.784775
4288 26.873613
4352 26.974922
4356 27.431519
4416 27.063512
4422 27.188890
4488 27.351701
4554 27.198599
4620 27.368352
4624 27.346173
4686 27.416102
4692 27.393470
4760 27.544423
4828 27.450080
4896 27.579929
4900 27.649846
4964 27.722144
4970 27.449229
5040 27.646960
5110 27.574054
5180 27.672817
5184 27.730885
5250 27.738568
5256 28.022428
5328 27.857191
5400 27.581832
5472 27.859524
5476 27.647092
5544 27.878847
5550 27.810304
5624 27.898340
5698 27.778248
5772 27.856263
5776 27.883203
5846 27.628640
5852 28.048013
5928 27.751410
6004 27.841473
6080 28.139318
6084 28.008711
6156 28.172832
6162 28.009488
6240 27.997002
6318 28.286101
6396 28.266182
6400 28.054947
6474 28.367907
6480 28.322232
6560 28.426035
6640 28.446982
6720 28.559374
6724 28.355777
6800 28.299597
6806 28.444236
6888 28.578955
6970 28.529622
7052 28.830075
7056 28.653647
7134 28.764936
7140 28.755910
7224 28.765758
7308 28.542337
7392 28.524595
7396 28.781773
7476 28.636818
7482 28.880978
7568 28.991830
7654 29.110446
7740 28.920742
7744 28.796300
7826 28.877219
7832 29.115692
7920 29.248697
8008 28.838119
8096 29.025668
8100 29.448410
8184 29.099009
8190 29.211493
8280 29.331724
8370 29.010860
8460 29.170368
8464 29.347155
8550 29.363037
8556 29.322968
8648 29.326156
8740 29.324267
8832 29.242366
8836 29.244575
8924 29.441018
8930 29.491641
9024 29.235225
9118 29.244263
9212 29.521959
9216 29.190694
9306 29.355708
9312 29.583648
9408 29.448184
9504 29.517358
9600 29.351041
9604 29.344152
9696 29.595438
9702 29.550130
9800 29.451891
9898 29.270857
9996 29.451295
10000 29.609445
10094 29.501435
10100 29.280289
10200 29.576657
10300 29.504261
10400 29.344132
10404 29.569573
10500 29.375805
10506 29.353620
10608 29.054131
10710 29.186958
10812 29.075836
10816 29.101495
10914 29.020555
10920 29.263556
11024 29.212903
11128 29.095399
11232 29.128293
11236 29.309857
11336 29.122487
11342 29.077715
11448 29.111373
11554 29.314591
11660 29.256231
11664 29.047570
11766 29.131683
11772 29.047109
11880 29.172495
11988 29.047990
12096 29.045670
12100 29.303611
12204 29.301914
12210 29.051932
12320 28.999523
12430 29.220729
12540 29.189129
12544 29.002622
12650 29.305493
12656 29.111580
12768 29.102281
12880 29.324776
12992 29.225921
12996 28.985586
13104 29.215910
13110 29.014137
13224 29.025946
13338 29.332312
13452 29.326581
13456 29.098741
13566 29.195322
13572 28.982105
13688 29.292280
13804 29.472970
13920 29.567048
13924 29.270242
14036 29.311903
14042 29.422756
14160 29.217382
14278 29.339495
14396 29.083402
14400 29.302136
14514 29.262069
14520 29.200332
14640 29.321894
14760 29.331305
14880 29.428367
14884 29.553550
15000 29.283926
15006 29.242932
15128 29.606006
15250 29.226992
15372 29.547057
15376 29.455969
15494 29.097079
15500 29.343785
15624 29.470543
15748 29.598791
15872 29.311405
15876 29.339992
15996 29.486733
16002 29.458663
16128 29.498028
16254 29.183137
16380 29.578289
16384 29.281289
16506 29.531331
16512 29.346822
16640 29.486508
16768 29.653404
16896 29.279686
16900 29.421335
17024 29.487355
17030 29.584302
17160 29.375984
17290 29.141142
17420 29.426693
17550 29.770699
