10 20.323656
20 20.323656
30 20.323656
40 20.319840
50 20.319840
60 20.319840
70 20.319840
80 20.319840
90 20.319840
100 20.319840
110 20.319840
120 20.319840
130 20.319840
140 20.319840
150 20.343693
160 20.343693
170 20.181234
180 20.181234
190 20.181234
200 20.181234
210 20.181234
220 20.181234
230 20.181234
240 20.181234
250 20.181234
260 20.181234
270 20.181234
280 20.181234
290 20.181234
300 20.181234
310 20.181234
320 20.181234
330 20.181234
340 20.181234
350 20.181234
360 20.181234
370 20.181234
380 20.181234
390 20.181234
400 20.181234
410 20.181234
420 20.181234
430 20.181234
440 20.181234
450 20.181234
460 20.181234
470 20.181234
480 20.181234
490 20.181234
500 20.181234
510 20.181234
520 20.181234
530 20.181234
540 20.181234
550 20.181234
560 20.181234
570 20.181234
580 20.181234
590 20.181234
600 20.181234
610 20.181234
620 20.181234
630 20.181234
640 20.181234
650 20.181234
660 20.181234
670 20.181234
680 20.181234
690 20.181234
700 20.181234
710 20.181234
720 20.181234
730 20.181234
740 20.181234
750 20.181234
760 20.181234
770 20.181234
780 20.181234
790 20.181234
800 20.181234
810 20.181234
820 20.181234
830 20.181234
840 20.181234
850 20.181234
860 20.181234
870 20.181234
880 20.181234
890 20.181234
900 20.181234
910 20.181234
920 20.181234
930 20.181234
940 20.181234
950 20.181234
960 20.181234
970 20.181234
980 20.181234
990 20.181234
1000 20.181234
